mips_single_cycle/dump.vcd
$date
	Fri Nov  8 14:42:25 2019
$end
$version
	Icarus Verilog
$end
$timescale
	1s
$end
$scope module datapath_tb $end
$var wire 32 ! v0 [31:0] $end
$var wire 32 " t5 [31:0] $end
$var wire 32 # t4 [31:0] $end
$var wire 32 $ t3 [31:0] $end
$var wire 32 % t2 [31:0] $end
$var wire 32 & t1 [31:0] $end
$var wire 32 ' t0 [31:0] $end
$var wire 32 ( s3 [31:0] $end
$var wire 32 ) s2 [31:0] $end
$var wire 32 * s1 [31:0] $end
$var wire 32 + s0 [31:0] $end
$var wire 32 , rra [31:0] $end
$var wire 32 - a1 [31:0] $end
$var wire 32 . a0 [31:0] $end
$var reg 1 / clk $end
$var reg 1 0 reset $end
$scope module datapath_dut $end
$var wire 1 1 beq_out $end
$var wire 1 2 bne_out $end
$var wire 1 / clk $end
$var wire 1 3 notzero $end
$var wire 1 0 reset $end
$var wire 1 4 zero $end
$var wire 32 5 v0 [31:0] $end
$var wire 32 6 t5 [31:0] $end
$var wire 32 7 t4 [31:0] $end
$var wire 32 8 t3 [31:0] $end
$var wire 32 9 t2 [31:0] $end
$var wire 32 : t1 [31:0] $end
$var wire 32 ; t0 [31:0] $end
$var wire 32 < s3 [31:0] $end
$var wire 32 = s2 [31:0] $end
$var wire 32 > s1 [31:0] $end
$var wire 32 ? s0 [31:0] $end
$var wire 32 @ rra [31:0] $end
$var wire 32 A return_pc [31:0] $end
$var wire 1 B regwrite $end
$var wire 2 C regdst [1:0] $end
$var wire 32 D readdata2 [31:0] $end
$var wire 32 E readdata1 [31:0] $end
$var wire 32 F pc_address [31:0] $end
$var wire 32 G pc_4tomux [31:0] $end
$var wire 32 H out_extend [31:0] $end
$var wire 32 I muxtomux2 [31:0] $end
$var wire 32 J muxtomux1 [31:0] $end
$var wire 32 K muxtomux0 [31:0] $end
$var wire 32 L mux_writedata [31:0] $end
$var wire 5 M mux_w [4:0] $end
$var wire 1 N memwrite $end
$var wire 2 O memtoreg [1:0] $end
$var wire 1 P memread $end
$var wire 32 Q jump_pc_conc [31:0] $end
$var wire 1 R jump $end
$var wire 1 S jr $end
$var wire 32 T instruction [31:0] $end
$var wire 32 U dm_out [31:0] $end
$var wire 1 V bne $end
$var wire 1 W beq $end
$var wire 1 X alusrc $end
$var wire 3 Y aluop [2:0] $end
$var wire 4 Z alucontrol [3:0] $end
$var wire 32 [ alu_select [31:0] $end
$var wire 32 \ alu_result [31:0] $end
$var wire 32 ] add2_result [31:0] $end
$var wire 32 ^ a1 [31:0] $end
$var wire 32 _ a0 [31:0] $end
$scope module ALU1 $end
$var wire 5 ` shamt [4:0] $end
$var wire 1 4 zero $end
$var wire 32 a operand2 [31:0] $end
$var wire 32 b operand1 [31:0] $end
$var wire 4 c control [3:0] $end
$var reg 32 d result [31:0] $end
$upscope $end
$scope module alu_control1 $end
$var wire 6 e funct [5:0] $end
$var wire 3 f aluOp [2:0] $end
$var reg 1 S JR $end
$var reg 4 g ctrl [3:0] $end
$upscope $end
$scope module control1 $end
$var wire 6 h opcode [5:0] $end
$var reg 3 i ALUOp [2:0] $end
$var reg 1 X ALUSrc $end
$var reg 1 W BEQ $end
$var reg 1 V BNE $end
$var reg 1 R Jump $end
$var reg 1 P MemRead $end
$var reg 1 N MemWrite $end
$var reg 2 j MemtoReg [1:0] $end
$var reg 2 k RegDst [1:0] $end
$var reg 1 B RegWrite $end
$upscope $end
$scope module datamemory $end
$var wire 32 l address [31:0] $end
$var wire 1 P memRead $end
$var wire 1 N memWrite $end
$var wire 32 m Writedata [31:0] $end
$var reg 32 n Readdata [31:0] $end
$var integer 32 o file [31:0] $end
$var integer 32 p i [31:0] $end
$upscope $end
$scope module extend $end
$var wire 16 q dataIn [15:0] $end
$var wire 32 r dataOut [31:0] $end
$upscope $end
$scope module instructionmemory $end
$var wire 1 / clock $end
$var wire 1 0 reset $end
$var wire 32 s pc [31:0] $end
$var reg 32 t instruction [31:0] $end
$upscope $end
$scope module mux1 $end
$var wire 1 S sel $end
$var wire 32 u out [31:0] $end
$var wire 32 v option_1 [31:0] $end
$var wire 32 w option_0 [31:0] $end
$upscope $end
$scope module mux2 $end
$var wire 32 x option_1 [31:0] $end
$var wire 1 2 sel $end
$var wire 32 y out [31:0] $end
$var wire 32 z option_0 [31:0] $end
$upscope $end
$scope module mux3 $end
$var wire 32 { option_1 [31:0] $end
$var wire 1 R sel $end
$var wire 32 | out [31:0] $end
$var wire 32 } option_0 [31:0] $end
$upscope $end
$scope module mux4 $end
$var wire 32 ~ option_0 [31:0] $end
$var wire 32 !" option_1 [31:0] $end
$var wire 1 1 sel $end
$var wire 32 "" out [31:0] $end
$upscope $end
$scope module mux5 $end
$var wire 32 #" option_0 [31:0] $end
$var wire 32 $" option_1 [31:0] $end
$var wire 32 %" option_2 [31:0] $end
$var wire 2 &" sel [1:0] $end
$var wire 32 '" out [31:0] $end
$upscope $end
$scope module mux6 $end
$var wire 32 (" option_1 [31:0] $end
$var wire 1 X sel $end
$var wire 32 )" out [31:0] $end
$var wire 32 *" option_0 [31:0] $end
$upscope $end
$scope module mux7 $end
$var wire 5 +" option_0 [4:0] $end
$var wire 5 ," option_1 [4:0] $end
$var wire 5 -" option_2 [4:0] $end
$var wire 2 ." sel [1:0] $end
$var wire 5 /" out [4:0] $end
$upscope $end
$scope module pc1 $end
$var wire 1 / clock $end
$var wire 32 0" pc_input [31:0] $end
$var wire 1 0 reset $end
$var reg 32 1" pc [31:0] $end
$var integer 32 2" file [31:0] $end
$upscope $end
$scope module reg_file1 $end
$var wire 32 3" a0 [31:0] $end
$var wire 32 4" a1 [31:0] $end
$var wire 1 / clock $end
$var wire 5 5" read1 [4:0] $end
$var wire 5 6" read2 [4:0] $end
$var wire 32 7" rra [31:0] $end
$var wire 32 8" s0 [31:0] $end
$var wire 32 9" s1 [31:0] $end
$var wire 32 :" s2 [31:0] $end
$var wire 32 ;" s3 [31:0] $end
$var wire 32 <" t0 [31:0] $end
$var wire 32 =" t1 [31:0] $end
$var wire 32 >" t2 [31:0] $end
$var wire 32 ?" t3 [31:0] $end
$var wire 32 @" t4 [31:0] $end
$var wire 32 A" t5 [31:0] $end
$var wire 32 B" v0 [31:0] $end
$var wire 32 C" writeData [31:0] $end
$var wire 1 B writeEna $end
$var wire 5 D" writeReg [4:0] $end
$var wire 32 E" data2 [31:0] $end
$var wire 32 F" data1 [31:0] $end
$var integer 32 G" file [31:0] $end
$var integer 32 H" i [31:0] $end
$upscope $end
$upscope $end
$upscope $end
$enddefinitions $end
#0
$dumpvars
bx H"
b1000 G"
bx F"
bx E"
bx D"
bx C"
bx B"
bx A"
bx @"
bx ?"
bx >"
bx ="
bx <"
bx ;"
bx :"
bx 9"
bx 8"
bx 7"
bx 6"
bx 5"
bx 4"
bx 3"
b100 2"
bx 1"
bx 0"
bx /"
bx ."
b11111 -"
bx ,"
bx +"
bx *"
bx )"
bx ("
bx '"
bx &"
bx %"
bx $"
bx #"
bx ""
bx !"
bx ~
bx }
bx |
bx00 {
bx z
bx y
bx x
bx w
bx v
bx u
bx t
bx s
bx r
bx q
bx p
b10 o
bx n
bx m
bx l
bx k
bx j
bx i
bx h
bx g
bx f
bx e
bx d
bx c
bx b
bx a
bx `
bx _
bx ^
bx ]
bx \
bx [
bx Z
bx Y
xX
xW
xV
bx U
bx T
xS
xR
bx00 Q
xP
bx O
xN
bx M
bx L
bx K
bx J
bx I
bx H
bx G
bx F
bx E
bx D
bx C
xB
bx A
bx @
bx ?
bx >
bx =
bx <
bx ;
bx :
bx 9
bx 8
bx 7
bx 6
bx 5
x4
x3
x2
x1
10
1/
bx .
bx -
bx ,
bx +
bx *
bx )
bx (
bx '
bx &
bx %
bx $
bx #
bx "
bx !
$end
#3
b0xxxxxxxxxxxxxxxxxxxxxxxxxx00 Q
b0xxxxxxxxxxxxxxxxxxxxxxxxxx00 {
b100 G
b100 ~
b100 %"
b0 F
b0 s
b0 1"
00
#5
0/
#10
1/
#11
b100 A
b100 u
b100 0"
b100 I
b100 w
b100 y
b100 J
b100 z
b100 |
b100 K
b100 }
b100 ""
02
01
13
b1100100 L
b1100100 '"
b1100100 C"
b1100100 [
b1100100 a
b1100100 )"
b110010100 ]
b110010100 x
b110010100 !"
b0 E
b0 b
b0 v
b0 F"
b1000 M
b1000 /"
b1000 D"
1B
b0 C
b0 k
b0 ."
0N
b0 O
b0 j
b0 &"
0P
0R
0V
0W
1X
b10 Y
b10 f
b10 i
b10 Z
b10 c
b10 g
0S
04
b1100100 \
b1100100 d
b1100100 l
b1100100 #"
b1100100 H
b1100100 r
b1100100 ("
b1100100 q
b1000 6"
b0 5"
b0 ,"
b1000 +"
b1000 h
b100100 e
b1 `
b1000000000000110010000 Q
b1000000000000110010000 {
b100000000010000000000001100100 T
b100000000010000000000001100100 t
#13
10
#15
0/
#20
b1000 A
b1000 u
b1000 0"
b1000 I
b1000 w
b1000 y
b1000 J
b1000 z
b1000 |
b1100100 D
b1100100 m
b1100100 *"
b1100100 E"
b1000 K
b1000 }
b1000 ""
b1100100 '
b1100100 ;
b1100100 <"
b110011000 ]
b110011000 x
b110011000 !"
b1000 G
b1000 ~
b1000 %"
b100 F
b100 s
b100 1"
1/
#21
03
b0 L
b0 '"
b0 C"
14
b0 [
b0 a
b0 )"
b1000 ]
b1000 x
b1000 !"
b0 D
b0 m
b0 *"
b0 E"
b0 M
b0 /"
b0 D"
b1 C
b1 k
b1 ."
0X
b100 Y
b100 f
b100 i
b1000 Z
b1000 c
b1000 g
b0 \
b0 d
b0 l
b0 #"
b0 H
b0 r
b0 ("
b0 q
b0 6"
b0 +"
b0 h
b0 e
b0 `
b0 Q
b0 {
b0 T
b0 t
#25
0/
#30
b1100 A
b1100 u
b1100 0"
b1100 I
b1100 w
b1100 y
b1100 J
b1100 z
b1100 |
b1100 K
b1100 }
b1100 ""
b1100 ]
b1100 x
b1100 !"
b1100 G
b1100 ~
b1100 %"
b1000 F
b1000 s
b1000 1"
1/
#35
0/
#40
b10000 A
b10000 u
b10000 0"
b10000 I
b10000 w
b10000 y
b10000 J
b10000 z
b10000 |
b10000 K
b10000 }
b10000 ""
b10000 ]
b10000 x
b10000 !"
b10000 G
b10000 ~
b10000 %"
b1100 F
b1100 s
b1100 1"
1/
#45
0/
#50
b10100 A
b10100 u
b10100 0"
b10100 I
b10100 w
b10100 y
b10100 J
b10100 z
b10100 |
b10100 K
b10100 }
b10100 ""
b10100 ]
b10100 x
b10100 !"
b10100 G
b10100 ~
b10100 %"
b10000 F
b10000 s
b10000 1"
1/
#55
0/
#60
b11000 A
b11000 u
b11000 0"
b11000 I
b11000 w
b11000 y
b11000 J
b11000 z
b11000 |
b11000 K
b11000 }
b11000 ""
b11000 ]
b11000 x
b11000 !"
b11000 G
b11000 ~
b11000 %"
b10100 F
b10100 s
b10100 1"
1/
#65
0/
#70
b11100 A
b11100 u
b11100 0"
b11100 I
b11100 w
b11100 y
b11100 J
b11100 z
b11100 |
b11100 K
b11100 }
b11100 ""
b11100 ]
b11100 x
b11100 !"
b11100 G
b11100 ~
b11100 %"
b11000 F
b11000 s
b11000 1"
1/
#75
0/
#80
b100000 A
b100000 u
b100000 0"
b100000 I
b100000 w
b100000 y
b100000 J
b100000 z
b100000 |
b100000 K
b100000 }
b100000 ""
b100000 ]
b100000 x
b100000 !"
b100000 G
b100000 ~
b100000 %"
b11100 F
b11100 s
b11100 1"
1/
#85
0/
#90
b100100 A
b100100 u
b100100 0"
b100100 I
b100100 w
b100100 y
b100100 J
b100100 z
b100100 |
b100100 K
b100100 }
b100100 ""
b100100 ]
b100100 x
b100100 !"
b100100 G
b100100 ~
b100100 %"
b100000 F
b100000 s
b100000 1"
1/
#95
0/
#100
b101000 A
b101000 u
b101000 0"
b101000 I
b101000 w
b101000 y
b101000 J
b101000 z
b101000 |
b101000 K
b101000 }
b101000 ""
b101000 ]
b101000 x
b101000 !"
b101000 G
b101000 ~
b101000 %"
b100100 F
b100100 s
b100100 1"
1/
#105
0/
#110
b101100 A
b101100 u
b101100 0"
b101100 I
b101100 w
b101100 y
b101100 J
b101100 z
b101100 |
b101100 K
b101100 }
b101100 ""
b101100 ]
b101100 x
b101100 !"
b101100 G
b101100 ~
b101100 %"
b101000 F
b101000 s
b101000 1"
1/
#115
0/
#120
b110000 A
b110000 u
b110000 0"
b110000 I
b110000 w
b110000 y
b110000 J
b110000 z
b110000 |
b110000 K
b110000 }
b110000 ""
b110000 ]
b110000 x
b110000 !"
b110000 G
b110000 ~
b110000 %"
b101100 F
b101100 s
b101100 1"
1/
#125
0/
#130
b110100 A
b110100 u
b110100 0"
b110100 I
b110100 w
b110100 y
b110100 J
b110100 z
b110100 |
b110100 K
b110100 }
b110100 ""
b110100 ]
b110100 x
b110100 !"
b110100 G
b110100 ~
b110100 %"
b110000 F
b110000 s
b110000 1"
1/
#135
0/
#140
b111000 A
b111000 u
b111000 0"
b111000 I
b111000 w
b111000 y
b111000 J
b111000 z
b111000 |
b111000 K
b111000 }
b111000 ""
b111000 ]
b111000 x
b111000 !"
b111000 G
b111000 ~
b111000 %"
b110100 F
b110100 s
b110100 1"
1/
#145
0/
#150
b111100 A
b111100 u
b111100 0"
b111100 I
b111100 w
b111100 y
b111100 J
b111100 z
b111100 |
b111100 K
b111100 }
b111100 ""
b111100 ]
b111100 x
b111100 !"
b111100 G
b111100 ~
b111100 %"
b111000 F
b111000 s
b111000 1"
1/
#155
0/
#160
b1000000 A
b1000000 u
b1000000 0"
b1000000 I
b1000000 w
b1000000 y
b1000000 J
b1000000 z
b1000000 |
b1000000 K
b1000000 }
b1000000 ""
b1000000 ]
b1000000 x
b1000000 !"
b1000000 G
b1000000 ~
b1000000 %"
b111100 F
b111100 s
b111100 1"
1/
#165
0/
#170
b1000100 A
b1000100 u
b1000100 0"
b1000100 I
b1000100 w
b1000100 y
b1000100 J
b1000100 z
b1000100 |
b1000100 K
b1000100 }
b1000100 ""
b1000100 ]
b1000100 x
b1000100 !"
b1000100 G
b1000100 ~
b1000100 %"
b1000000 F
b1000000 s
b1000000 1"
1/
#175
0/
#180
b1001000 A
b1001000 u
b1001000 0"
b1001000 I
b1001000 w
b1001000 y
b1001000 J
b1001000 z
b1001000 |
b1001000 K
b1001000 }
b1001000 ""
b1001000 ]
b1001000 x
b1001000 !"
b1001000 G
b1001000 ~
b1001000 %"
b1000100 F
b1000100 s
b1000100 1"
1/
#185
0/
#190
b1001100 A
b1001100 u
b1001100 0"
b1001100 I
b1001100 w
b1001100 y
b1001100 J
b1001100 z
b1001100 |
b1001100 K
b1001100 }
b1001100 ""
b1001100 ]
b1001100 x
b1001100 !"
b1001100 G
b1001100 ~
b1001100 %"
b1001000 F
b1001000 s
b1001000 1"
1/
#195
0/
#200
b1010000 A
b1010000 u
b1010000 0"
b1010000 I
b1010000 w
b1010000 y
b1010000 J
b1010000 z
b1010000 |
b1010000 K
b1010000 }
b1010000 ""
b1010000 ]
b1010000 x
b1010000 !"
b1010000 G
b1010000 ~
b1010000 %"
b1001100 F
b1001100 s
b1001100 1"
1/
#205
0/
#210
b1010100 A
b1010100 u
b1010100 0"
b1010100 I
b1010100 w
b1010100 y
b1010100 J
b1010100 z
b1010100 |
b1010100 K
b1010100 }
b1010100 ""
b1010100 ]
b1010100 x
b1010100 !"
b1010100 G
b1010100 ~
b1010100 %"
b1010000 F
b1010000 s
b1010000 1"
1/
#215
0/
#220
b1011000 A
b1011000 u
b1011000 0"
b1011000 I
b1011000 w
b1011000 y
b1011000 J
b1011000 z
b1011000 |
b1011000 K
b1011000 }
b1011000 ""
b1011000 ]
b1011000 x
b1011000 !"
b1011000 G
b1011000 ~
b1011000 %"
b1010100 F
b1010100 s
b1010100 1"
1/
#225
0/
#230
b1011100 A
b1011100 u
b1011100 0"
b1011100 I
b1011100 w
b1011100 y
b1011100 J
b1011100 z
b1011100 |
b1011100 K
b1011100 }
b1011100 ""
b1011100 ]
b1011100 x
b1011100 !"
b1011100 G
b1011100 ~
b1011100 %"
b1011000 F
b1011000 s
b1011000 1"
1/
#235
0/
#240
b1100000 A
b1100000 u
b1100000 0"
b1100000 I
b1100000 w
b1100000 y
b1100000 J
b1100000 z
b1100000 |
b1100000 K
b1100000 }
b1100000 ""
b1100000 ]
b1100000 x
b1100000 !"
b1100000 G
b1100000 ~
b1100000 %"
b1011100 F
b1011100 s
b1011100 1"
1/
#245
0/
#250
b1100100 A
b1100100 u
b1100100 0"
b1100100 I
b1100100 w
b1100100 y
b1100100 J
b1100100 z
b1100100 |
b1100100 K
b1100100 }
b1100100 ""
b1100100 ]
b1100100 x
b1100100 !"
b1100100 G
b1100100 ~
b1100100 %"
b1100000 F
b1100000 s
b1100000 1"
1/
#255
0/
#260
b1101000 A
b1101000 u
b1101000 0"
b1101000 I
b1101000 w
b1101000 y
b1101000 J
b1101000 z
b1101000 |
b1101000 K
b1101000 }
b1101000 ""
b1101000 ]
b1101000 x
b1101000 !"
b1101000 G
b1101000 ~
b1101000 %"
b1100100 F
b1100100 s
b1100100 1"
1/
#265
0/
#270
b1101100 A
b1101100 u
b1101100 0"
b1101100 I
b1101100 w
b1101100 y
b1101100 J
b1101100 z
b1101100 |
b1101100 K
b1101100 }
b1101100 ""
b1101100 ]
b1101100 x
b1101100 !"
b1101100 G
b1101100 ~
b1101100 %"
b1101000 F
b1101000 s
b1101000 1"
1/
#275
0/
#280
b1110000 A
b1110000 u
b1110000 0"
b1110000 I
b1110000 w
b1110000 y
b1110000 J
b1110000 z
b1110000 |
b1110000 K
b1110000 }
b1110000 ""
b1110000 ]
b1110000 x
b1110000 !"
b1110000 G
b1110000 ~
b1110000 %"
b1101100 F
b1101100 s
b1101100 1"
1/
#285
0/
#290
b1110100 A
b1110100 u
b1110100 0"
b1110100 I
b1110100 w
b1110100 y
b1110100 J
b1110100 z
b1110100 |
b1110100 K
b1110100 }
b1110100 ""
b1110100 ]
b1110100 x
b1110100 !"
b1110100 G
b1110100 ~
b1110100 %"
b1110000 F
b1110000 s
b1110000 1"
1/
#295
0/
#300
b1111000 A
b1111000 u
b1111000 0"
b1111000 I
b1111000 w
b1111000 y
b1111000 J
b1111000 z
b1111000 |
b1111000 K
b1111000 }
b1111000 ""
b1111000 ]
b1111000 x
b1111000 !"
b1111000 G
b1111000 ~
b1111000 %"
b1110100 F
b1110100 s
b1110100 1"
1/
#305
0/
#310
b1111100 A
b1111100 u
b1111100 0"
b1111100 I
b1111100 w
b1111100 y
b1111100 J
b1111100 z
b1111100 |
b1111100 K
b1111100 }
b1111100 ""
b1111100 ]
b1111100 x
b1111100 !"
b1111100 G
b1111100 ~
b1111100 %"
b1111000 F
b1111000 s
b1111000 1"
1/
#315
0/
#320
b10000000 A
b10000000 u
b10000000 0"
b10000000 I
b10000000 w
b10000000 y
b10000000 J
b10000000 z
b10000000 |
b10000000 K
b10000000 }
b10000000 ""
b10000000 ]
b10000000 x
b10000000 !"
b10000000 G
b10000000 ~
b10000000 %"
b1111100 F
b1111100 s
b1111100 1"
1/
#325
0/
#330
b10000100 A
b10000100 u
b10000100 0"
b10000100 I
b10000100 w
b10000100 y
b10000100 J
b10000100 z
b10000100 |
b10000100 K
b10000100 }
b10000100 ""
b10000100 ]
b10000100 x
b10000100 !"
b10000100 G
b10000100 ~
b10000100 %"
b10000000 F
b10000000 s
b10000000 1"
1/
#335
0/
#340
b10001000 A
b10001000 u
b10001000 0"
b10001000 I
b10001000 w
b10001000 y
b10001000 J
b10001000 z
b10001000 |
b10001000 K
b10001000 }
b10001000 ""
b10001000 ]
b10001000 x
b10001000 !"
b10001000 G
b10001000 ~
b10001000 %"
b10000100 F
b10000100 s
b10000100 1"
1/
#345
0/
#350
b10001100 A
b10001100 u
b10001100 0"
b10001100 I
b10001100 w
b10001100 y
b10001100 J
b10001100 z
b10001100 |
b10001100 K
b10001100 }
b10001100 ""
b10001100 ]
b10001100 x
b10001100 !"
b10001100 G
b10001100 ~
b10001100 %"
b10001000 F
b10001000 s
b10001000 1"
1/
#355
0/
#360
b10010000 A
b10010000 u
b10010000 0"
b10010000 I
b10010000 w
b10010000 y
b10010000 J
b10010000 z
b10010000 |
b10010000 K
b10010000 }
b10010000 ""
b10010000 ]
b10010000 x
b10010000 !"
b10010000 G
b10010000 ~
b10010000 %"
b10001100 F
b10001100 s
b10001100 1"
1/
#365
0/
#370
b10010100 A
b10010100 u
b10010100 0"
b10010100 I
b10010100 w
b10010100 y
b10010100 J
b10010100 z
b10010100 |
b10010100 K
b10010100 }
b10010100 ""
b10010100 ]
b10010100 x
b10010100 !"
b10010100 G
b10010100 ~
b10010100 %"
b10010000 F
b10010000 s
b10010000 1"
1/
#375
0/
#380
b10011000 A
b10011000 u
b10011000 0"
b10011000 I
b10011000 w
b10011000 y
b10011000 J
b10011000 z
b10011000 |
b10011000 K
b10011000 }
b10011000 ""
b10011000 ]
b10011000 x
b10011000 !"
b10011000 G
b10011000 ~
b10011000 %"
b10010100 F
b10010100 s
b10010100 1"
1/
#385
0/
#390
b10011100 A
b10011100 u
b10011100 0"
b10011100 I
b10011100 w
b10011100 y
b10011100 J
b10011100 z
b10011100 |
b10011100 K
b10011100 }
b10011100 ""
b10011100 ]
b10011100 x
b10011100 !"
b10011100 G
b10011100 ~
b10011100 %"
b10011000 F
b10011000 s
b10011000 1"
1/
#395
0/
#400
b10100000 A
b10100000 u
b10100000 0"
b10100000 I
b10100000 w
b10100000 y
b10100000 J
b10100000 z
b10100000 |
b10100000 K
b10100000 }
b10100000 ""
b10100000 ]
b10100000 x
b10100000 !"
b10100000 G
b10100000 ~
b10100000 %"
b10011100 F
b10011100 s
b10011100 1"
1/
#405
0/
#410
b10100100 A
b10100100 u
b10100100 0"
b10100100 I
b10100100 w
b10100100 y
b10100100 J
b10100100 z
b10100100 |
b10100100 K
b10100100 }
b10100100 ""
b10100100 ]
b10100100 x
b10100100 !"
b10100100 G
b10100100 ~
b10100100 %"
b10100000 F
b10100000 s
b10100000 1"
1/
#415
0/
#420
b10101000 A
b10101000 u
b10101000 0"
b10101000 I
b10101000 w
b10101000 y
b10101000 J
b10101000 z
b10101000 |
b10101000 K
b10101000 }
b10101000 ""
b10101000 ]
b10101000 x
b10101000 !"
b10101000 G
b10101000 ~
b10101000 %"
b10100100 F
b10100100 s
b10100100 1"
1/
#425
0/
#430
b10101100 A
b10101100 u
b10101100 0"
b10101100 I
b10101100 w
b10101100 y
b10101100 J
b10101100 z
b10101100 |
b10101100 K
b10101100 }
b10101100 ""
b10101100 ]
b10101100 x
b10101100 !"
b10101100 G
b10101100 ~
b10101100 %"
b10101000 F
b10101000 s
b10101000 1"
1/
#435
0/
#440
b10110000 A
b10110000 u
b10110000 0"
b10110000 I
b10110000 w
b10110000 y
b10110000 J
b10110000 z
b10110000 |
b10110000 K
b10110000 }
b10110000 ""
b10110000 ]
b10110000 x
b10110000 !"
b10110000 G
b10110000 ~
b10110000 %"
b10101100 F
b10101100 s
b10101100 1"
1/
#445
0/
#450
b10110100 A
b10110100 u
b10110100 0"
b10110100 I
b10110100 w
b10110100 y
b10110100 J
b10110100 z
b10110100 |
b10110100 K
b10110100 }
b10110100 ""
b10110100 ]
b10110100 x
b10110100 !"
b10110100 G
b10110100 ~
b10110100 %"
b10110000 F
b10110000 s
b10110000 1"
1/
#455
0/
#460
b10111000 A
b10111000 u
b10111000 0"
b10111000 I
b10111000 w
b10111000 y
b10111000 J
b10111000 z
b10111000 |
b10111000 K
b10111000 }
b10111000 ""
b10111000 ]
b10111000 x
b10111000 !"
b10111000 G
b10111000 ~
b10111000 %"
b10110100 F
b10110100 s
b10110100 1"
1/
#465
0/
#470
b10111100 A
b10111100 u
b10111100 0"
b10111100 I
b10111100 w
b10111100 y
b10111100 J
b10111100 z
b10111100 |
b10111100 K
b10111100 }
b10111100 ""
b10111100 ]
b10111100 x
b10111100 !"
b10111100 G
b10111100 ~
b10111100 %"
b10111000 F
b10111000 s
b10111000 1"
1/
#475
0/
#480
b11000000 A
b11000000 u
b11000000 0"
b11000000 I
b11000000 w
b11000000 y
b11000000 J
b11000000 z
b11000000 |
b11000000 K
b11000000 }
b11000000 ""
b11000000 ]
b11000000 x
b11000000 !"
b11000000 G
b11000000 ~
b11000000 %"
b10111100 F
b10111100 s
b10111100 1"
1/
#485
0/
#490
b11000100 A
b11000100 u
b11000100 0"
b11000100 I
b11000100 w
b11000100 y
b11000100 J
b11000100 z
b11000100 |
b11000100 K
b11000100 }
b11000100 ""
b11000100 ]
b11000100 x
b11000100 !"
b11000100 G
b11000100 ~
b11000100 %"
b11000000 F
b11000000 s
b11000000 1"
1/
#495
0/
#500
b11001000 A
b11001000 u
b11001000 0"
b11001000 I
b11001000 w
b11001000 y
b11001000 J
b11001000 z
b11001000 |
b11001000 K
b11001000 }
b11001000 ""
b11001000 ]
b11001000 x
b11001000 !"
b11001000 G
b11001000 ~
b11001000 %"
b11000100 F
b11000100 s
b11000100 1"
1/
#505
0/
#510
b11001100 A
b11001100 u
b11001100 0"
b11001100 I
b11001100 w
b11001100 y
b11001100 J
b11001100 z
b11001100 |
b11001100 K
b11001100 }
b11001100 ""
b11001100 ]
b11001100 x
b11001100 !"
b11001100 G
b11001100 ~
b11001100 %"
b11001000 F
b11001000 s
b11001000 1"
1/
#515
0/
#520
b11010000 A
b11010000 u
b11010000 0"
b11010000 I
b11010000 w
b11010000 y
b11010000 J
b11010000 z
b11010000 |
b11010000 K
b11010000 }
b11010000 ""
b11010000 ]
b11010000 x
b11010000 !"
b11010000 G
b11010000 ~
b11010000 %"
b11001100 F
b11001100 s
b11001100 1"
1/
#525
0/
#530
b11010100 A
b11010100 u
b11010100 0"
b11010100 I
b11010100 w
b11010100 y
b11010100 J
b11010100 z
b11010100 |
b11010100 K
b11010100 }
b11010100 ""
b11010100 ]
b11010100 x
b11010100 !"
b11010100 G
b11010100 ~
b11010100 %"
b11010000 F
b11010000 s
b11010000 1"
1/
#535
0/
#540
b11011000 A
b11011000 u
b11011000 0"
b11011000 I
b11011000 w
b11011000 y
b11011000 J
b11011000 z
b11011000 |
b11011000 K
b11011000 }
b11011000 ""
b11011000 ]
b11011000 x
b11011000 !"
b11011000 G
b11011000 ~
b11011000 %"
b11010100 F
b11010100 s
b11010100 1"
1/
#545
0/
#550
b11011100 A
b11011100 u
b11011100 0"
b11011100 I
b11011100 w
b11011100 y
b11011100 J
b11011100 z
b11011100 |
b11011100 K
b11011100 }
b11011100 ""
b11011100 ]
b11011100 x
b11011100 !"
b11011100 G
b11011100 ~
b11011100 %"
b11011000 F
b11011000 s
b11011000 1"
1/
#555
0/
#560
b11100000 A
b11100000 u
b11100000 0"
b11100000 I
b11100000 w
b11100000 y
b11100000 J
b11100000 z
b11100000 |
b11100000 K
b11100000 }
b11100000 ""
b11100000 ]
b11100000 x
b11100000 !"
b11100000 G
b11100000 ~
b11100000 %"
b11011100 F
b11011100 s
b11011100 1"
1/
#565
0/
#570
b11100100 A
b11100100 u
b11100100 0"
b11100100 I
b11100100 w
b11100100 y
b11100100 J
b11100100 z
b11100100 |
b11100100 K
b11100100 }
b11100100 ""
b11100100 ]
b11100100 x
b11100100 !"
b11100100 G
b11100100 ~
b11100100 %"
b11100000 F
b11100000 s
b11100000 1"
1/
#575
0/
#580
b11101000 A
b11101000 u
b11101000 0"
b11101000 I
b11101000 w
b11101000 y
b11101000 J
b11101000 z
b11101000 |
b11101000 K
b11101000 }
b11101000 ""
b11101000 ]
b11101000 x
b11101000 !"
b11101000 G
b11101000 ~
b11101000 %"
b11100100 F
b11100100 s
b11100100 1"
1/
#585
0/
#590
b11101100 A
b11101100 u
b11101100 0"
b11101100 I
b11101100 w
b11101100 y
b11101100 J
b11101100 z
b11101100 |
b11101100 K
b11101100 }
b11101100 ""
b11101100 ]
b11101100 x
b11101100 !"
b11101100 G
b11101100 ~
b11101100 %"
b11101000 F
b11101000 s
b11101000 1"
1/
#595
0/
#600
b11110000 A
b11110000 u
b11110000 0"
b11110000 I
b11110000 w
b11110000 y
b11110000 J
b11110000 z
b11110000 |
b11110000 K
b11110000 }
b11110000 ""
b11110000 ]
b11110000 x
b11110000 !"
b11110000 G
b11110000 ~
b11110000 %"
b11101100 F
b11101100 s
b11101100 1"
1/
b100000 H"
b1111111111111 p
